eye 0.0 0.0 8.0
viewdir 0.0 0.0 -1.0
updir 0.0 1.0 0.0
fovv 100.0
imsize 500 500
bkgcolor 0.8 0.8 1
light 3.0 4.0 5.0 1.0 1.0 0.0 0.0
light -3.0 15.0 7.0 1.0 1.0 1.0 1.0
light 5.0 0.0 -1.0 0.0 0.0 0.0 1.0
mtlcolor 0.0 1.0 1.0 1.0 1.0 1.0 0.2 0.4 0.4 100.0 .8 2.0
sphere -3.0 0.0 -6.0 3.0
mtlcolor 0.8 0.0 1.0 1.0 1.0 1.0 0.2 0.4 0.4 30.0 1.0 1.5
sphere 2.0 4.0 -3.0 1.0
mtlcolor 0.3 0.3 0.3 1.0 1.0 1.0 0.2 0.3 0.5 50.0 1 10.3
sphere 3.0 -1.0 -5.0 2.0
mtlcolor 0.3 0.3 0.3 1.0 1.0 1.0 0.2 0.3 0.0 50.0 0.2 1.1
sphere 1.0 1. 5.0 .5
mtlcolor 0.5 0.5 0.5 1.0 1.0 1.0 0.2 0.2 0.6 10.0 1 4.1
sphere 0.0 -1000.0 -80.0 1000.0